Date,Open,High,Low,Close,Adj Close,Volume
2017-11-13,1123.000000,1139.900024,1122.339966,1129.170044,1129.170044,2918400
2017-11-14,1130.109985,1138.000000,1123.890015,1136.839966,1136.839966,3138400
2017-11-15,1127.010010,1131.750000,1121.630005,1126.689941,1126.689941,3928700
2017-11-16,1130.160034,1138.160034,1130.050049,1137.290039,1137.290039,2213300
2017-11-17,1138.280029,1138.800049,1125.810059,1129.880005,1129.880005,2413400
2017-11-20,1129.770020,1133.420044,1122.550049,1126.310059,1126.310059,2163900
2017-11-21,1132.859985,1140.000000,1128.199951,1139.489990,1139.489990,2479400
2017-11-22,1141.000000,1160.270020,1141.000000,1156.160034,1156.160034,3555300
2017-11-24,1160.699951,1186.839966,1160.699951,1186.000000,1186.000000,3528000
2017-11-27,1202.660034,1213.410034,1191.150024,1195.829956,1195.829956,6744000
2017-11-28,1204.880005,1205.339966,1188.520020,1193.599976,1193.599976,4559400
2017-11-29,1194.800049,1194.800049,1145.189941,1161.270020,1161.270020,9257500
2017-11-30,1167.099976,1178.569946,1160.000000,1176.750000,1176.750000,4509200
2017-12-01,1172.050049,1179.650024,1152.000000,1162.349976,1162.349976,4107100
2017-12-04,1173.849976,1175.199951,1128.000000,1133.949951,1133.949951,5931900
2017-12-05,1128.260010,1159.270020,1124.739990,1141.569946,1141.569946,4079800
2017-12-06,1137.989990,1155.890015,1136.079956,1152.349976,1152.349976,2853300
2017-12-07,1156.589966,1163.189941,1151.000000,1159.790039,1159.790039,2511600
2017-12-08,1170.400024,1172.790039,1157.099976,1162.000000,1162.000000,3050100
2017-12-11,1164.599976,1169.900024,1157.000000,1168.920044,1168.920044,2363500
2017-12-12,1166.510010,1173.599976,1161.609985,1165.079956,1165.079956,2235900
2017-12-13,1170.000000,1170.869995,1160.270020,1164.130005,1164.130005,2616800
2017-12-14,1163.709961,1177.930054,1162.449951,1174.260010,1174.260010,3214300
2017-12-15,1179.030029,1182.750000,1169.329956,1179.140015,1179.140015,4778600
2017-12-18,1187.369995,1194.780029,1180.910034,1190.579956,1190.579956,2947600
2017-12-19,1189.150024,1192.969971,1179.140015,1187.380005,1187.380005,2587800
2017-12-20,1190.500000,1191.000000,1176.000000,1177.619995,1177.619995,2371200
2017-12-21,1175.900024,1179.170044,1167.640015,1174.760010,1174.760010,2123100
2017-12-22,1172.079956,1174.619995,1167.829956,1168.359985,1168.359985,1585100
2017-12-26,1168.359985,1178.319946,1160.550049,1176.760010,1176.760010,2005200
2017-12-27,1179.910034,1187.290039,1175.609985,1182.260010,1182.260010,1867200
2017-12-28,1189.000000,1190.099976,1184.380005,1186.099976,1186.099976,1841700
2017-12-29,1182.349976,1184.000000,1167.500000,1169.469971,1169.469971,2688400
2018-01-02,1172.000000,1190.000000,1170.510010,1189.010010,1189.010010,2694500
2018-01-03,1188.300049,1205.489990,1188.300049,1204.199951,1204.199951,3108800
2018-01-04,1205.000000,1215.869995,1204.660034,1209.589966,1209.589966,3022100
2018-01-05,1217.510010,1229.140015,1210.000000,1229.140015,1229.140015,3544700
2018-01-08,1236.000000,1253.079956,1232.030029,1246.869995,1246.869995,4279500
2018-01-09,1256.900024,1259.329956,1241.760010,1252.699951,1252.699951,3661300
2018-01-10,1245.150024,1254.329956,1237.229980,1254.329956,1254.329956,2686000
2018-01-11,1259.739990,1276.770020,1256.459961,1276.680054,1276.680054,3125000
2018-01-12,1273.390015,1305.760010,1273.390015,1305.199951,1305.199951,5443700
2018-01-16,1323.000000,1339.939941,1292.300049,1304.859985,1304.859985,7220700
2018-01-17,1312.239990,1314.000000,1280.880005,1295.000000,1295.000000,5221400
2018-01-18,1293.949951,1304.599976,1284.020020,1293.319946,1293.319946,4026900
2018-01-19,1312.000000,1313.000000,1292.989990,1294.579956,1294.579956,4578500
2018-01-22,1297.170044,1327.449951,1296.660034,1327.310059,1327.310059,4140100
2018-01-23,1338.089966,1364.900024,1337.339966,1362.540039,1362.540039,5169300
2018-01-24,1374.819946,1388.160034,1338.000000,1357.510010,1357.510010,6807500
2018-01-25,1368.000000,1378.339966,1357.619995,1377.949951,1377.949951,4753000
2018-01-26,1392.010010,1402.530029,1380.910034,1402.050049,1402.050049,4857300
2018-01-29,1409.180054,1431.390015,1400.439941,1417.680054,1417.680054,5701900
2018-01-30,1403.170044,1439.250000,1392.000000,1437.819946,1437.819946,5871900
2018-01-31,1451.300049,1472.579956,1450.040039,1450.890015,1450.890015,6424700
2018-02-01,1445.000000,1459.880005,1385.140015,1390.000000,1390.000000,9113800
2018-02-02,1477.390015,1498.000000,1414.000000,1429.949951,1429.949951,11125700
2018-02-05,1402.619995,1458.979980,1320.719971,1390.000000,1390.000000,11495000
2018-02-06,1361.459961,1443.989990,1351.790039,1442.839966,1442.839966,11066800
2018-02-07,1449.000000,1460.989990,1415.150024,1416.780029,1416.780029,7162700
2018-02-08,1429.680054,1433.750000,1349.939941,1350.500000,1350.500000,8578600
2018-02-09,1373.489990,1383.500000,1265.930054,1339.599976,1339.599976,14141500
2018-02-12,1364.670044,1393.810059,1344.010010,1386.229980,1386.229980,6738900
2018-02-13,1385.930054,1419.719971,1383.530029,1414.510010,1414.510010,5917900
2018-02-14,1406.250000,1452.060059,1403.359985,1451.050049,1451.050049,5959200
2018-02-15,1466.890015,1468.939941,1436.839966,1461.760010,1461.760010,5652700
2018-02-16,1457.369995,1465.800049,1446.560059,1448.689941,1448.689941,4472600
2018-02-20,1446.489990,1488.770020,1446.489990,1468.349976,1468.349976,6499200
2018-02-21,1485.000000,1503.489990,1478.920044,1482.920044,1482.920044,6304400
2018-02-22,1495.359985,1502.540039,1475.760010,1485.339966,1485.339966,4858100
2018-02-23,1495.339966,1500.000000,1486.500000,1500.000000,1500.000000,4418100
2018-02-26,1509.199951,1522.839966,1507.000000,1521.949951,1521.949951,4955000
2018-02-27,1524.500000,1526.780029,1507.209961,1511.979980,1511.979980,4808800
2018-02-28,1519.510010,1528.699951,1512.000000,1512.449951,1512.449951,4515000
2018-03-01,1513.599976,1518.489990,1465.000000,1493.449951,1493.449951,6835200
2018-03-02,1469.099976,1501.050049,1455.010010,1500.250000,1500.250000,6587600
2018-03-05,1494.239990,1525.380005,1481.000000,1523.609985,1523.609985,5233900
2018-03-06,1533.199951,1542.130005,1528.000000,1537.640015,1537.640015,4561700
2018-03-07,1526.520020,1545.900024,1522.510010,1545.000000,1545.000000,4174100
2018-03-08,1550.000000,1554.880005,1545.250000,1551.859985,1551.859985,3862600
2018-03-09,1563.500000,1578.939941,1559.079956,1578.890015,1578.890015,4534300
2018-03-12,1592.599976,1605.329956,1586.699951,1598.390015,1598.390015,5174200
2018-03-13,1615.959961,1617.540039,1578.010010,1588.180054,1588.180054,6531900
2018-03-14,1597.000000,1606.439941,1590.890015,1591.000000,1591.000000,4259400
2018-03-15,1595.000000,1596.910034,1578.109985,1582.319946,1582.319946,4069700
2018-03-16,1583.449951,1589.439941,1567.500000,1571.680054,1571.680054,5425000
2018-03-19,1554.530029,1561.660034,1525.349976,1544.930054,1544.930054,6580800
2018-03-20,1550.339966,1587.000000,1545.410034,1586.510010,1586.510010,4581600
2018-03-21,1586.449951,1590.000000,1563.170044,1581.859985,1581.859985,4750800
2018-03-22,1565.469971,1573.849976,1542.400024,1544.920044,1544.920044,6320600
2018-03-23,1539.010010,1549.020020,1495.359985,1495.560059,1495.560059,8006000
2018-03-26,1530.000000,1556.989990,1499.250000,1555.859985,1555.859985,5624700
2018-03-27,1572.400024,1575.969971,1482.319946,1497.050049,1497.050049,6999600
2018-03-28,1447.000000,1455.900024,1386.170044,1431.420044,1431.420044,13705300
2018-03-29,1406.000000,1455.469971,1365.199951,1447.339966,1447.339966,12581100
2018-04-02,1417.619995,1421.359985,1355.000000,1371.989990,1371.989990,10463600
2018-04-03,1391.380005,1414.000000,1355.329956,1392.050049,1392.050049,10231200
2018-04-04,1358.239990,1415.390015,1352.880005,1410.569946,1410.569946,6982300
2018-04-05,1441.989990,1459.560059,1427.069946,1451.750000,1451.750000,6413500
2018-04-06,1429.969971,1452.500000,1400.260010,1405.229980,1405.229980,5882300
2018-04-09,1425.030029,1438.479980,1402.569946,1406.079956,1406.079956,4208200
2018-04-10,1431.989990,1438.380005,1415.699951,1436.219971,1436.219971,4254100
2018-04-11,1439.439941,1448.780029,1424.890015,1427.050049,1427.050049,3582500
2018-04-12,1439.500000,1452.119995,1435.060059,1448.500000,1448.500000,3135000
2018-04-13,1449.140015,1459.780029,1424.520020,1430.790039,1430.790039,3685300
2018-04-16,1445.000000,1447.000000,1427.479980,1441.500000,1441.500000,2808600
2018-04-17,1462.300049,1507.189941,1457.020020,1503.829956,1503.829956,5114400
2018-04-18,1514.650024,1533.800049,1504.109985,1527.839966,1527.839966,5227500
2018-04-19,1543.219971,1568.520020,1539.060059,1556.910034,1556.910034,6523700
2018-04-20,1561.199951,1561.199951,1516.089966,1527.489990,1527.489990,5541600
2018-04-23,1546.689941,1548.000000,1503.410034,1517.859985,1517.859985,4465400
2018-04-24,1535.800049,1539.500000,1448.449951,1460.089966,1460.089966,7494700
2018-04-25,1458.000000,1469.989990,1415.020020,1460.170044,1460.170044,6587300
2018-04-26,1485.010010,1529.420044,1478.500000,1517.959961,1517.959961,8801100
2018-04-27,1634.010010,1638.099976,1567.390015,1572.619995,1572.619995,13053200
2018-04-30,1582.500000,1596.000000,1560.939941,1566.130005,1566.130005,5464100
2018-05-01,1563.219971,1585.000000,1552.180054,1582.260010,1582.260010,4572100
2018-05-02,1580.979980,1588.500000,1566.359985,1569.680054,1569.680054,4360300
2018-05-03,1560.010010,1574.800049,1546.020020,1572.079956,1572.079956,4251900
2018-05-04,1562.449951,1584.900024,1562.189941,1580.949951,1580.949951,3443600
2018-05-07,1589.339966,1606.949951,1587.829956,1600.140015,1600.140015,3801900
2018-05-08,1595.000000,1596.880005,1582.510010,1592.390015,1592.390015,3067900
2018-05-09,1600.000000,1608.000000,1592.000000,1608.000000,1608.000000,3637300
2018-05-10,1608.479980,1615.599976,1603.439941,1609.079956,1609.079956,2817500
2018-05-11,1610.989990,1611.099976,1597.890015,1602.910034,1602.910034,2263900
2018-05-14,1604.000000,1611.180054,1600.050049,1601.540039,1601.540039,2509500
2018-05-15,1587.800049,1587.800049,1565.219971,1576.119995,1576.119995,5077500
2018-05-16,1577.500000,1594.430054,1576.670044,1587.280029,1587.280029,2570600
2018-05-17,1580.560059,1594.040039,1573.000000,1581.760010,1581.760010,2147600
2018-05-18,1581.329956,1583.589966,1572.099976,1574.369995,1574.369995,2642600
2018-05-21,1585.000000,1592.050049,1575.000000,1585.459961,1585.459961,2925200
2018-05-22,1589.890015,1589.890015,1575.250000,1581.400024,1581.400024,2115600
2018-05-23,1571.050049,1601.859985,1566.339966,1601.859985,1601.859985,3299800
2018-05-24,1598.030029,1608.239990,1588.380005,1603.069946,1603.069946,3375800
2018-05-25,1603.000000,1614.119995,1600.449951,1610.150024,1610.150024,2698400
2018-05-29,1600.709961,1621.790039,1600.150024,1612.869995,1612.869995,3829900
2018-05-30,1618.099976,1626.000000,1612.930054,1624.890015,1624.890015,2907400
2018-05-31,1623.000000,1635.000000,1621.349976,1629.619995,1629.619995,3166300
2018-06-01,1637.030029,1646.729980,1635.089966,1641.540039,1641.540039,3290100
2018-06-04,1648.900024,1665.680054,1645.489990,1665.270020,1665.270020,3167900
2018-06-05,1672.989990,1699.000000,1670.060059,1696.349976,1696.349976,4782200
2018-06-06,1704.510010,1714.500000,1686.469971,1695.750000,1695.750000,5473200
2018-06-07,1698.560059,1699.900024,1676.109985,1689.300049,1689.300049,3765700
2018-06-08,1681.119995,1689.439941,1673.010010,1683.989990,1683.989990,2955100
2018-06-11,1681.510010,1694.239990,1680.589966,1689.119995,1689.119995,2335500
2018-06-12,1693.000000,1699.510010,1691.520020,1698.750000,1698.750000,2259200
2018-06-13,1702.810059,1713.750000,1700.119995,1704.859985,1704.859985,3327500
2018-06-14,1713.479980,1724.800049,1708.869995,1723.859985,1723.859985,3174400
2018-06-15,1714.000000,1720.869995,1708.520020,1715.969971,1715.969971,4777600
2018-06-18,1706.260010,1726.739990,1702.560059,1723.790039,1723.790039,3107700
2018-06-19,1709.040039,1736.109985,1700.390015,1734.780029,1734.780029,4290100
2018-06-20,1742.500000,1762.930054,1741.359985,1750.079956,1750.079956,4332600
2018-06-21,1760.000000,1763.099976,1717.560059,1730.219971,1730.219971,4941100
2018-06-22,1742.619995,1743.000000,1711.900024,1715.670044,1715.670044,4075100
2018-06-25,1702.510010,1705.000000,1646.310059,1663.150024,1663.150024,7511200
2018-06-26,1672.369995,1701.569946,1663.339966,1691.089966,1691.089966,4386600
2018-06-27,1708.109985,1711.949951,1660.000000,1660.510010,1660.510010,4872200
2018-06-28,1672.540039,1705.500000,1661.170044,1701.449951,1701.449951,4529700
2018-06-29,1717.000000,1723.410034,1694.319946,1699.800049,1699.800049,4543500
2018-07-02,1682.699951,1713.890015,1678.060059,1713.780029,1713.780029,3185700
2018-07-03,1723.959961,1725.000000,1692.479980,1693.959961,1693.959961,2177300
2018-07-05,1705.380005,1710.689941,1682.150024,1699.729980,1699.729980,2983100
2018-07-06,1696.000000,1715.270020,1691.670044,1710.630005,1710.630005,2650300
2018-07-09,1724.050049,1739.560059,1716.229980,1739.020020,1739.020020,3012000
2018-07-10,1738.530029,1750.000000,1731.000000,1743.069946,1743.069946,3002900
2018-07-11,1737.989990,1756.959961,1734.000000,1755.000000,1755.000000,3209800
2018-07-12,1764.510010,1798.000000,1762.180054,1796.619995,1796.619995,4532700
2018-07-13,1803.930054,1815.300049,1795.229980,1813.030029,1813.030029,4383200
2018-07-16,1821.949951,1841.949951,1814.449951,1822.489990,1822.489990,5466200
2018-07-17,1811.560059,1851.689941,1797.380005,1843.930054,1843.930054,5682900
2018-07-18,1848.000000,1858.880005,1831.270020,1842.920044,1842.920044,4861900
2018-07-19,1829.459961,1841.000000,1811.270020,1812.969971,1812.969971,4676900
2018-07-20,1825.010010,1834.839966,1810.060059,1813.699951,1813.699951,3884400
2018-07-23,1812.209961,1819.000000,1769.989990,1802.000000,1802.000000,3888500
2018-07-24,1829.010010,1840.000000,1809.380005,1829.239990,1829.239990,4278700
2018-07-25,1829.300049,1863.839966,1822.640015,1863.609985,1863.609985,3738200
2018-07-26,1839.000000,1844.680054,1804.500000,1808.000000,1808.000000,9924400
2018-07-27,1876.050049,1880.050049,1806.530029,1817.270020,1817.270020,9681000
2018-07-30,1827.329956,1829.500000,1766.020020,1779.219971,1779.219971,6562300
2018-07-31,1786.489990,1801.829956,1739.319946,1777.439941,1777.439941,5738700
2018-08-01,1784.000000,1798.439941,1776.020020,1797.170044,1797.170044,4153100
2018-08-02,1788.770020,1836.560059,1786.000000,1834.329956,1834.329956,4354700
2018-08-03,1837.739990,1841.000000,1821.500000,1823.290039,1823.290039,3460500
2018-08-06,1825.810059,1847.770020,1818.920044,1847.750000,1847.750000,3391800
2018-08-07,1854.530029,1869.719971,1846.270020,1862.479980,1862.479980,3377500
2018-08-08,1861.000000,1891.510010,1854.500000,1886.520020,1886.520020,3963000
2018-08-09,1882.000000,1914.569946,1877.479980,1898.520020,1898.520020,4849900
2018-08-10,1888.510010,1899.500000,1878.209961,1886.300049,1886.300049,3639900
2018-08-13,1898.500000,1925.000000,1893.670044,1896.199951,1896.199951,5512600
2018-08-14,1919.390015,1921.010010,1900.000000,1919.650024,1919.650024,3986100
2018-08-15,1909.550049,1916.209961,1869.790039,1882.619995,1882.619995,7700700
2018-08-16,1903.939941,1905.000000,1883.550049,1886.520020,1886.520020,3957100
2018-08-17,1885.800049,1888.000000,1855.550049,1882.219971,1882.219971,4104300
2018-08-20,1890.569946,1891.750000,1866.060059,1876.709961,1876.709961,2862000
2018-08-21,1880.000000,1897.750000,1874.410034,1883.420044,1883.420044,3105600
2018-08-22,1876.640015,1905.800049,1876.640015,1904.900024,1904.900024,3080500
2018-08-23,1907.170044,1919.500000,1900.760010,1902.900024,1902.900024,3563000
2018-08-24,1910.510010,1916.010010,1902.540039,1905.390015,1905.390015,2800900
2018-08-27,1915.000000,1927.699951,1909.280029,1927.680054,1927.680054,3569000
2018-08-28,1937.729980,1941.780029,1928.819946,1932.819946,1932.819946,3100700
2018-08-29,1953.449951,1998.689941,1948.939941,1998.099976,1998.099976,6531800
2018-08-30,1997.420044,2025.569946,1986.900024,2002.380005,2002.380005,7277300
2018-08-31,2007.000000,2022.380005,2004.739990,2012.709961,2012.709961,4204400
2018-09-04,2026.500000,2050.500000,2013.000000,2039.510010,2039.510010,5721100
2018-09-05,2038.109985,2040.380005,1989.890015,1994.819946,1994.819946,8220600
2018-09-06,2006.510010,2007.500000,1935.209961,1958.310059,1958.310059,7488700
2018-09-07,1938.709961,1975.199951,1937.349976,1952.069946,1952.069946,4892600
2018-09-10,1971.000000,1973.040039,1931.520020,1939.010010,1939.010010,4544800
2018-09-11,1928.270020,1988.880005,1917.000000,1987.150024,1987.150024,5033600
2018-09-12,1994.000000,2000.000000,1962.439941,1990.000000,1990.000000,4414000
2018-09-13,2000.000000,2008.760010,1982.030029,1989.869995,1989.869995,3621500
2018-09-14,1992.930054,1993.650024,1959.219971,1970.189941,1970.189941,3642000
2018-09-17,1954.729980,1956.819946,1887.410034,1908.030029,1908.030029,7050200
2018-09-18,1918.650024,1958.199951,1915.439941,1941.050049,1941.050049,4268700
2018-09-19,1940.500000,1940.829956,1904.900024,1926.420044,1926.420044,4056800
2018-09-20,1938.579956,1955.000000,1932.250000,1944.300049,1944.300049,3154900
2018-09-21,1954.219971,1957.310059,1910.500000,1915.010010,1915.010010,6855900
2018-09-24,1903.790039,1936.880005,1865.000000,1934.359985,1934.359985,4213700
2018-09-25,1942.900024,1975.910034,1938.849976,1974.550049,1974.550049,4538400
2018-09-26,1968.500000,1995.250000,1961.520020,1974.849976,1974.849976,4313500
2018-09-27,1993.239990,2016.160034,1988.579956,2012.979980,2012.979980,4329400
2018-09-28,2004.410034,2026.520020,1996.459961,2003.000000,2003.000000,4085100
2018-10-01,2021.989990,2033.189941,2003.599976,2004.359985,2004.359985,3460500
2018-10-02,1999.989990,2013.390015,1965.770020,1971.310059,1971.310059,5400700
2018-10-03,1981.699951,1989.699951,1949.810059,1952.760010,1952.760010,5253100
2018-10-04,1949.000000,1956.000000,1896.569946,1909.420044,1909.420044,7257000
2018-10-05,1917.989990,1929.079956,1862.829956,1889.650024,1889.650024,6822300
2018-10-08,1874.000000,1902.000000,1830.660034,1864.420044,1864.420044,7393200
2018-10-09,1859.989990,1896.680054,1852.319946,1870.319946,1870.319946,4772900
2018-10-10,1857.890015,1858.560059,1754.410034,1755.250000,1755.250000,10988900
2018-10-11,1724.000000,1755.400024,1685.099976,1719.359985,1719.359985,13935900
2018-10-12,1808.000000,1808.949951,1742.530029,1788.609985,1788.609985,9444600
2018-10-15,1795.000000,1795.050049,1734.229980,1760.949951,1760.949951,6437200
2018-10-16,1783.500000,1823.880005,1761.550049,1819.959961,1819.959961,5859900
2018-10-17,1842.790039,1845.000000,1807.000000,1831.729980,1831.729980,5295200
2018-10-18,1821.489990,1830.150024,1767.869995,1770.719971,1770.719971,5874000
2018-10-19,1785.160034,1809.099976,1753.000000,1764.030029,1764.030029,5907200
2018-10-22,1784.000000,1809.500000,1756.000000,1789.300049,1789.300049,4500000
2018-10-23,1742.239990,1776.339966,1714.000000,1768.699951,1768.699951,6723900
2018-10-24,1773.699951,1777.709961,1656.560059,1664.199951,1664.199951,6928400
2018-10-25,1703.339966,1794.810059,1692.010010,1782.170044,1782.170044,10285700
2018-10-26,1649.589966,1698.459961,1603.000000,1642.810059,1642.810059,14963800
2018-10-29,1660.000000,1665.739990,1495.000000,1538.880005,1538.880005,13866100
2018-10-30,1486.160034,1540.989990,1476.359985,1530.420044,1530.420044,12460100
2018-10-31,1569.989990,1623.910034,1565.089966,1598.010010,1598.010010,9390200
2018-11-01,1623.530029,1670.449951,1598.439941,1665.530029,1665.530029,8135500
2018-11-02,1678.589966,1697.439941,1651.829956,1665.530029,1665.530029,6955500
2018-11-05,1657.569946,1658.089966,1596.359985,1627.800049,1627.800049,5624700
2018-11-06,1618.349976,1665.000000,1614.550049,1642.810059,1642.810059,4257400
2018-11-07,1673.000000,1759.229980,1664.079956,1755.489990,1755.489990,8192200
2018-11-08,1755.000000,1784.000000,1725.109985,1754.910034,1754.910034,6534900
2018-11-09,1732.500000,1743.920044,1701.869995,1712.430054,1712.430054,5895300
2018-11-12,1698.239990,1708.550049,1630.130005,1636.849976,1636.849976,6760807
