Date,Open,High,Low,Close,Adj Close,Volume
2017-11-13,81.239998,81.519997,80.610001,80.669998,78.170395,2568500
2017-11-14,80.550003,81.589996,80.489998,81.370003,78.848717,3108700
2017-11-15,80.889999,81.690002,80.000000,81.480003,78.955307,3122000
2017-11-16,81.309998,82.610001,81.209999,82.120003,79.575478,4322600
2017-11-17,81.849998,82.919998,81.750000,82.879997,80.311935,2897400
2017-11-20,82.260002,82.260002,81.480003,82.089996,80.223969,3163600
2017-11-21,82.239998,84.000000,82.150002,83.800003,81.895103,3528000
2017-11-22,83.910004,83.910004,82.309998,82.349998,80.478065,3271500
2017-11-24,82.680000,82.849998,82.059998,82.250000,80.380333,1623400
2017-11-27,82.220001,82.349998,81.589996,82.120003,80.253288,3073500
2017-11-28,82.330002,83.470001,81.839996,83.239998,81.347832,3015300
2017-11-29,83.190002,83.650002,82.500000,83.339996,81.445549,2752900
2017-11-30,83.830002,85.860001,83.360001,85.620003,83.673729,5521800
2017-12-01,85.370003,85.779999,82.519997,84.169998,82.256691,4123200
2017-12-04,84.559998,85.430000,83.500000,83.629997,81.728966,4049400
2017-12-05,83.910004,86.419998,83.910004,85.779999,83.830093,4197300
2017-12-06,85.480003,85.970001,84.570000,84.970001,83.038498,2975900
2017-12-07,84.790001,85.680000,84.650002,85.589996,83.644402,2128800
2017-12-08,86.269997,87.730003,85.959999,87.599998,85.608719,3533300
2017-12-11,87.169998,88.120003,86.870003,87.199997,85.217812,2853800
2017-12-12,87.400002,87.699997,86.800003,86.940002,84.963722,2515000
2017-12-13,86.769997,88.099998,86.599998,87.449997,85.462128,3112000
2017-12-14,87.550003,88.430000,87.430000,87.480003,85.491455,3635800
2017-12-15,87.650002,88.400002,87.500000,88.190002,86.185310,6579300
2017-12-18,88.570000,89.169998,88.209999,88.930000,86.908493,3433000
2017-12-19,88.940002,89.209999,88.010002,88.070000,86.068039,2953500
2017-12-20,88.690002,90.480003,88.279999,90.160004,88.110535,3506600
2017-12-21,89.930000,91.120003,89.839996,90.720001,88.657799,3004200
2017-12-22,91.029999,91.500000,90.800003,91.129997,89.058472,1837200
2017-12-26,91.250000,92.050003,91.239998,91.860001,89.771881,1442900
2017-12-27,91.820000,92.489998,91.570000,92.139999,90.045517,2388300
2017-12-28,92.389999,92.580002,91.750000,92.300003,90.201889,1835700
2017-12-29,92.690002,93.180000,91.910004,91.910004,89.820755,2343800
2018-01-02,92.190002,93.139999,91.709999,92.800003,90.690521,3582900
2018-01-03,92.580002,93.470001,92.500000,93.290001,91.169373,3057600
2018-01-04,93.410004,93.620003,92.639999,93.589996,91.462555,2977000
2018-01-05,93.599998,94.300003,93.430000,94.029999,91.892563,2973800
2018-01-08,94.129997,94.370003,93.400002,94.220001,92.078247,2493400
2018-01-09,94.760002,94.959999,94.000000,94.099998,91.960960,3884900
2018-01-10,93.809998,94.650002,93.559998,94.150002,92.009827,2391800
2018-01-11,94.589996,94.610001,93.610001,94.550003,92.400734,2679700
2018-01-12,94.910004,97.000000,94.709999,96.750000,94.550728,2873400
2018-01-16,96.849998,97.550003,95.660004,96.150002,93.964378,3052500
2018-01-17,96.459999,98.110001,96.290001,97.559998,95.342308,2777700
2018-01-18,97.110001,97.230003,95.980003,96.459999,94.267319,2489400
2018-01-19,96.769997,97.290001,96.250000,97.260002,95.049133,2368800
2018-01-22,97.620003,99.099998,97.430000,98.949997,96.700706,2441200
2018-01-23,99.309998,99.309998,98.059998,98.690002,96.446632,2120300
2018-01-24,99.930000,99.949997,96.980003,97.660004,95.440041,3109500
2018-01-25,98.190002,98.190002,96.879997,97.180000,94.970955,2725300
2018-01-26,97.559998,98.750000,97.389999,98.690002,96.446632,2122200
2018-01-29,98.629997,98.629997,96.190002,96.389999,94.198906,2787100
2018-01-30,95.820000,96.019997,92.110001,94.339996,92.195503,4338800
2018-01-31,94.550003,96.430000,94.459999,95.970001,93.788452,5334000
2018-02-01,96.419998,96.870003,92.699997,94.690002,92.537552,5032300
2018-02-02,94.190002,95.849998,92.739998,93.190002,91.071655,4656700
2018-02-05,91.839996,93.660004,82.900002,89.769997,87.729385,7072900
2018-02-06,87.779999,91.120003,86.750000,90.459999,88.403702,6335000
2018-02-07,90.430000,92.550003,89.839996,89.839996,87.797798,4344500
2018-02-08,89.629997,90.370003,86.750000,86.769997,84.797585,3975900
2018-02-09,87.629997,89.370003,85.260002,88.220001,86.214630,5463400
2018-02-12,88.250000,89.690002,88.129997,88.839996,87.615044,4020900
2018-02-13,88.330002,89.800003,88.160004,89.480003,88.246223,3638200
2018-02-14,88.860001,93.040001,88.779999,92.629997,91.352783,4877300
2018-02-15,93.559998,94.220001,91.580002,93.000000,91.717690,4057600
2018-02-16,93.010002,94.410004,92.410004,93.269997,91.983963,2538800
2018-02-20,93.110001,93.889999,91.050003,91.580002,90.317268,3083600
2018-02-21,91.500000,92.750000,90.809998,90.830002,89.577614,2018100
2018-02-22,90.989998,93.239998,90.989998,92.050003,90.780792,3047300
2018-02-23,92.680000,92.900002,91.660004,92.459999,91.185135,2069200
2018-02-26,93.110001,93.809998,92.660004,93.309998,92.023415,2563300
2018-02-27,93.360001,95.250000,92.730003,92.769997,91.490860,2893000
2018-02-28,93.000000,93.470001,90.400002,90.419998,89.173264,2746800
2018-03-01,90.529999,92.419998,89.790001,90.820000,89.567749,3035900
2018-03-02,90.059998,92.620003,89.570000,92.199997,90.928719,3485000
2018-03-05,91.510002,92.349998,90.080002,91.559998,90.297539,4656700
2018-03-06,91.879997,92.769997,91.000000,91.720001,90.455338,2852300
2018-03-07,90.750000,92.849998,90.699997,92.040001,90.770927,2616800
2018-03-08,92.099998,93.459999,91.099998,93.309998,92.023415,3650800
2018-03-09,93.930000,95.400002,93.849998,94.320000,93.019485,3500400
2018-03-12,94.010002,94.480003,92.529999,92.690002,91.411964,3231900
2018-03-13,93.019997,94.949997,92.800003,93.489998,92.200928,4322400
2018-03-14,93.669998,94.099998,92.489998,92.660004,91.382378,2747400
2018-03-15,93.099998,93.389999,90.519997,92.330002,91.056931,2786100
2018-03-16,92.389999,94.040001,92.389999,93.790001,92.496803,5308600
2018-03-19,93.220001,93.440002,92.169998,92.940002,91.658524,2334700
2018-03-20,93.540001,95.870003,93.470001,94.470001,93.167419,3354400
2018-03-21,94.709999,96.410004,94.489998,95.449997,94.133904,3066200
2018-03-22,94.389999,95.110001,92.949997,93.040001,91.757133,3264500
2018-03-23,93.790001,94.510002,91.110001,91.220001,89.962234,3195400
2018-03-26,92.379997,94.470001,92.339996,94.250000,92.950455,3111500
2018-03-27,94.290001,94.660004,91.110001,92.269997,90.997749,3756700
2018-03-28,92.599998,92.949997,90.220001,90.279999,89.035187,3864800
2018-03-29,91.220001,92.889999,91.120003,92.769997,91.490860,4173900
2018-04-02,92.250000,92.730003,89.750000,91.559998,90.297539,2788500
2018-04-03,92.199997,92.760002,91.339996,92.699997,91.421822,2930600
2018-04-04,91.089996,93.620003,89.970001,93.349998,92.062866,3659600
2018-04-05,93.830002,96.220001,93.709999,95.860001,94.538254,3766300
2018-04-06,95.059998,96.000000,93.769997,95.180000,93.867630,3432000
2018-04-09,95.820000,97.199997,95.559998,96.010002,94.686188,3653800
2018-04-10,97.370003,99.220001,97.070000,98.889999,97.526482,3489100
2018-04-11,98.980003,100.910004,98.339996,100.309998,98.926895,3506900
2018-04-12,100.650002,101.279999,99.650002,100.529999,99.143860,3245100
2018-04-13,101.349998,102.230003,100.459999,101.830002,100.425941,2641200
2018-04-16,102.260002,106.349998,102.129997,105.489998,104.035469,5876400
2018-04-17,105.629997,106.940002,104.089996,106.690002,105.218933,3669100
2018-04-18,107.260002,108.830002,106.699997,107.540001,106.057213,3904800
2018-04-19,107.540001,108.589996,106.330002,108.199997,106.708107,3240500
2018-04-20,107.849998,108.610001,107.379997,108.550003,107.053284,2795100
2018-04-23,108.750000,109.269997,107.480003,109.260002,107.753494,2162800
2018-04-24,109.349998,110.949997,107.660004,108.290001,106.796867,3279700
2018-04-25,107.779999,109.209999,106.269997,108.680000,107.181488,3799800
2018-04-26,109.790001,111.820000,106.949997,111.540001,110.002060,4912200
2018-04-27,111.610001,112.300003,109.320000,109.779999,108.266319,2658700
2018-04-30,110.080002,113.320000,109.860001,110.930000,109.400467,5667700
2018-05-01,110.260002,111.059998,108.769997,110.720001,109.193367,3680800
2018-05-02,110.550003,113.470001,110.550003,112.250000,110.702263,5677400
2018-05-03,111.769997,113.889999,110.959999,113.370003,111.806824,3576400
2018-05-04,113.000000,113.919998,111.930000,113.389999,111.826546,2923000
2018-05-07,114.160004,115.480003,113.339996,113.669998,112.102684,3449900
2018-05-08,113.059998,113.250000,111.029999,113.190002,111.629303,6102200
2018-05-09,113.949997,115.839996,113.519997,114.820000,113.236824,4159800
2018-05-10,115.540001,115.989998,113.980003,114.489998,112.911377,5038700
2018-05-11,114.660004,115.139999,114.150002,114.629997,113.049446,2773400
2018-05-14,115.199997,116.199997,114.989998,115.870003,114.272354,3936000
2018-05-15,115.889999,116.430000,114.820000,115.900002,114.301941,3541300
2018-05-16,114.940002,115.260002,113.870003,114.989998,114.192703,2691900
2018-05-17,116.459999,121.040001,116.330002,119.709999,118.879974,5888500
2018-05-18,120.050003,120.879997,119.019997,120.559998,119.724083,3906500
2018-05-21,121.529999,122.379997,120.230003,122.059998,121.213676,2992600
2018-05-22,121.860001,122.680000,119.660004,120.150002,119.316925,3253300
2018-05-23,119.269997,121.739998,118.529999,121.050003,120.210686,3285200
2018-05-24,120.099998,122.940002,119.570000,121.879997,121.034927,3153000
2018-05-25,120.400002,120.459999,117.650002,118.730003,117.906776,3581600
2018-05-29,118.290001,121.459999,118.209999,119.470001,118.641640,2989700
2018-05-30,120.699997,123.029999,120.059998,122.209999,121.362640,2996000
2018-05-31,121.860001,124.769997,120.910004,121.199997,120.359642,5480900
2018-06-01,122.080002,124.739998,121.459999,123.779999,122.921753,2928100
2018-06-04,124.629997,126.980003,124.250000,124.440002,123.577179,3767900
2018-06-05,124.180000,124.430000,122.739998,123.330002,122.474876,3392500
2018-06-06,123.000000,123.470001,119.940002,121.199997,120.359642,3554200
2018-06-07,121.739998,122.620003,120.800003,121.489998,120.647629,2329400
2018-06-08,121.519997,121.650002,119.209999,119.720001,118.889908,3743600
2018-06-11,119.809998,121.070000,118.480003,120.570000,119.734009,3279200
2018-06-12,120.669998,121.480003,117.580002,118.019997,117.201691,4422600
2018-06-13,117.940002,118.660004,115.599998,117.879997,117.062660,5546200
2018-06-14,118.699997,119.190002,116.690002,116.820000,116.010010,2431400
2018-06-15,115.949997,117.110001,115.010002,115.180000,114.381386,5087200
2018-06-18,115.330002,118.089996,115.019997,116.540001,115.731956,3054900
2018-06-19,115.330002,117.029999,115.029999,116.620003,115.811401,2491200
2018-06-20,116.860001,117.279999,115.309998,115.730003,114.927574,3093100
2018-06-21,115.059998,115.059998,111.040001,111.220001,110.448845,4528700
2018-06-22,113.269997,113.570000,111.709999,112.239998,111.461769,5030800
2018-06-25,111.669998,111.790001,108.580002,109.260002,108.502434,4559500
2018-06-26,109.510002,111.099998,109.480003,110.250000,109.485565,3422200
2018-06-27,111.209999,111.930000,109.330002,109.519997,108.760628,3412400
2018-06-28,109.129997,109.629997,107.680000,109.110001,108.353470,2668200
2018-06-29,111.360001,112.800003,110.760002,110.830002,110.061546,3483600
2018-07-02,109.900002,110.220001,108.410004,109.230003,108.472641,3748500
2018-07-03,110.360001,110.529999,107.800003,108.169998,107.419991,2078100
2018-07-05,109.169998,109.470001,106.239998,107.529999,106.784424,3400600
2018-07-06,106.779999,108.680000,105.949997,107.830002,107.082352,2461300
2018-07-09,108.300003,109.639999,108.160004,109.269997,108.512360,2726500
2018-07-10,109.769997,110.709999,108.529999,108.620003,107.866875,2648300
2018-07-11,107.910004,108.699997,105.900002,106.360001,105.622543,3512600
2018-07-12,107.099998,107.599998,105.540001,106.790001,106.049561,2992200
2018-07-13,106.620003,107.730003,106.160004,107.339996,106.595741,2500000
2018-07-16,107.279999,108.150002,106.139999,106.300003,105.562958,2548400
2018-07-17,106.199997,107.540001,105.669998,106.089996,105.354408,2590600
2018-07-18,105.540001,107.440002,103.750000,106.650002,105.910530,3100500
2018-07-19,106.959999,107.650002,106.720001,107.000000,106.258102,2564300
2018-07-20,106.680000,107.339996,105.820000,106.209999,105.473579,2291700
2018-07-23,106.860001,107.209999,105.760002,106.279999,105.543091,2542400
2018-07-24,106.550003,107.480003,106.400002,107.269997,106.526230,3347500
2018-07-25,107.419998,109.360001,107.019997,109.330002,108.571945,3309900
2018-07-26,109.709999,117.339996,109.279999,116.830002,116.019943,5408000
2018-07-27,116.449997,117.699997,115.339996,116.349998,115.543274,3308700
2018-07-30,117.220001,118.160004,116.169998,117.260002,116.446968,2930500
2018-07-31,117.459999,118.739998,117.459999,118.349998,117.529404,4034600
2018-08-01,116.610001,118.190002,115.519997,116.779999,115.970291,3411600
2018-08-02,115.680000,115.949997,114.040001,115.330002,114.530350,2588100
2018-08-03,115.440002,116.330002,113.529999,115.379997,114.579994,2583000
2018-08-06,114.500000,115.169998,113.820000,114.889999,114.889999,2401100
2018-08-07,115.300003,117.779999,115.099998,116.709999,116.709999,2606700
2018-08-08,115.639999,116.220001,115.089996,115.900002,115.900002,2009600
2018-08-09,115.919998,116.300003,114.769997,115.139999,115.139999,2175600
2018-08-10,114.610001,115.510002,114.449997,115.370003,115.370003,2059300
2018-08-13,116.139999,116.900002,114.680000,114.790001,114.790001,1788700
2018-08-14,115.430000,116.010002,114.650002,115.050003,115.050003,1440200
2018-08-15,114.750000,114.750000,111.160004,111.519997,111.519997,3452500
2018-08-16,111.800003,112.379997,111.199997,111.320000,111.320000,1875800
2018-08-17,111.949997,112.150002,110.610001,111.000000,111.000000,1791100
2018-08-20,111.339996,114.050003,111.040001,113.400002,113.400002,2072200
2018-08-21,113.900002,115.379997,113.809998,114.139999,114.139999,2021700
2018-08-22,114.379997,116.370003,114.279999,115.680000,115.680000,1670900
2018-08-23,115.459999,118.209999,115.150002,118.059998,118.059998,3151100
2018-08-24,118.449997,121.599998,118.410004,120.550003,120.550003,3448400
2018-08-27,121.080002,121.970001,120.750000,121.209999,121.209999,2038100
2018-08-28,121.400002,122.419998,119.820000,120.389999,120.389999,2062600
2018-08-29,120.389999,121.720001,119.529999,120.610001,120.610001,2525900
2018-08-30,121.000000,121.379997,118.279999,119.050003,119.050003,2648100
2018-08-31,118.519997,118.629997,116.480003,117.879997,117.879997,3722500
2018-09-04,118.360001,121.220001,118.320000,120.239998,120.239998,3372100
2018-09-05,119.239998,119.389999,116.910004,116.910004,116.910004,4506400
2018-09-06,117.339996,118.879997,115.300003,116.070000,116.070000,3406600
2018-09-07,114.839996,115.889999,113.389999,115.080002,115.080002,2498200
2018-09-10,115.650002,116.550003,114.989998,115.250000,115.250000,2451800
2018-09-11,114.930000,116.309998,114.239998,115.099998,115.099998,2708100
2018-09-12,116.070000,117.430000,115.879997,116.309998,116.309998,3195200
2018-09-13,116.540001,117.480003,115.800003,116.830002,116.830002,2081500
2018-09-14,116.879997,117.809998,116.699997,117.129997,117.129997,1724500
2018-09-17,117.050003,117.379997,115.209999,115.459999,115.459999,1876000
2018-09-18,115.769997,116.599998,115.309998,115.330002,115.330002,2028300
2018-09-19,115.180000,115.180000,108.650002,109.699997,109.699997,5033500
2018-09-20,110.059998,111.629997,108.099998,110.480003,110.480003,3135600
2018-09-21,110.809998,112.970001,110.129997,112.239998,112.239998,4044500
2018-09-24,113.190002,116.160004,113.089996,114.959999,114.959999,3069900
2018-09-25,115.599998,117.699997,114.949997,116.760002,116.760002,3219300
2018-09-26,116.250000,117.639999,114.629997,116.519997,116.519997,2492600
2018-09-27,117.220001,118.529999,114.940002,115.290001,115.290001,2281900
2018-09-28,114.589996,115.779999,113.410004,113.750000,113.750000,2787400
2018-10-01,114.589996,115.849998,113.599998,113.879997,113.879997,2404600
2018-10-02,114.269997,115.610001,112.550003,115.519997,115.519997,3240600
2018-10-03,116.470001,120.720001,116.470001,119.989998,119.989998,3683800
2018-10-04,119.570000,119.930000,116.620003,117.220001,117.220001,2214000
2018-10-05,118.199997,118.459999,115.809998,117.110001,117.110001,1834100
2018-10-08,116.570000,117.050003,115.150002,116.180000,116.180000,2722600
2018-10-09,116.180000,117.510002,115.349998,115.660004,115.660004,2400500
2018-10-10,116.139999,116.150002,110.750000,110.839996,110.839996,3083000
2018-10-11,109.970001,111.379997,106.320000,106.889999,106.889999,3478600
2018-10-12,107.800003,108.680000,106.540001,108.250000,108.250000,3502500
2018-10-15,108.239998,108.400002,103.680000,103.790001,103.790001,3741700
2018-10-16,104.529999,106.190002,103.980003,105.910004,105.910004,2209400
2018-10-17,105.900002,106.099998,103.279999,103.739998,103.739998,3378800
2018-10-18,102.709999,104.849998,101.320000,103.389999,103.389999,4018900
2018-10-19,98.169998,100.290001,92.500000,92.760002,92.760002,11818100
2018-10-22,92.540001,93.580002,91.099998,92.849998,92.849998,4663000
2018-10-23,90.820000,92.150002,87.930000,91.660004,91.660004,6303700
2018-10-24,91.550003,92.150002,86.330002,86.690002,86.690002,6376900
2018-10-25,89.029999,89.820000,85.949997,87.379997,87.379997,5189800
2018-10-26,86.029999,87.230003,82.639999,85.790001,85.790001,6921400
2018-10-29,86.389999,89.419998,86.160004,87.379997,87.379997,5884300
2018-10-30,87.760002,90.430000,87.669998,90.099998,90.099998,5477000
2018-10-31,91.209999,93.820000,91.019997,91.089996,91.089996,5501700
2018-11-01,92.070000,93.339996,90.309998,92.510002,92.510002,4340900
2018-11-02,93.199997,94.720001,90.919998,91.830002,91.830002,3424200
2018-11-05,92.889999,93.379997,89.870003,91.150002,91.150002,3339200
2018-11-06,91.160004,91.809998,89.919998,91.279999,91.279999,2609500
2018-11-07,92.040001,92.730003,90.059998,92.589996,92.589996,3672900
2018-11-08,92.360001,92.769997,88.059998,88.699997,88.699997,5813300
2018-11-09,87.750000,88.269997,86.480003,87.580002,87.580002,4760400
2018-11-12,87.860001,88.230003,85.760002,85.970001,85.970001,3887949
